D:\Data Eko                                                                                   
? cd..                                                                                        
                                                                                              
D:\                                                                                           
? cd sanbercode                                                                               
                                                                                              
D:\SANBERCODE (tugas_3 -> origin)                                                             
? dir/w                                                                                       
 Volume in drive D has no label.                                                              
 Volume Serial Number is 90B7-D971                                                            
                                                                                              
 Directory of D:\SANBERCODE                                                                   
                                                                                              
[.]                    [..]                   mintty.exe.stackdump   [sanbercodeimrn0620]     
[tugas_2]              [tugas_3]                                                              
               1 File(s)            520 bytes                                                 
               5 Dir(s)  151,654,735,872 bytes free                                           
                                                                                              
D:\SANBERCODE (tugas_3 -> origin)                                                             
? cd sanbercodeimrn0620                                                                       
                                                                                              
D:\SANBERCODE\sanbercodeimrn0620 (tugas_4 -> origin)                                          
? dir/w                                                                                       
 Volume in drive D has no label.                                                              
 Volume Serial Number is 90B7-D971                                                            
                                                                                              
 Directory of D:\SANBERCODE\sanbercodeimrn0620                                                
                                                                                              
[.]         [..]        README.md   [tugas_1]   [tugas_2]   [tugas_3]   [tugas_4]             
               1 File(s)             24 bytes                                                 
               6 Dir(s)  151,654,735,872 bytes free                                           
                                                                                              
D:\SANBERCODE\sanbercodeimrn0620 (tugas_4 -> origin)                                          
? mkdir tugas_                                                                                
                                                                                              
D:\SANBERCODE\sanbercodeimrn0620 (tugas_4 -> origin)                                          
? dir/w                                                                                       
 Volume in drive D has no label.                                                              
 Volume Serial Number is 90B7-D971                                                            
                                                                                              
 Directory of D:\SANBERCODE\sanbercodeimrn0620                                                
                                                                                              
[.]         [..]        README.md   [tugas_]    [tugas_1]   [tugas_2]   [tugas_3]             
[tugas_4]                                                                                     
               1 File(s)             24 bytes                                                 
               7 Dir(s)  151,654,735,872 bytes free                                           
                                                                                              
D:\SANBERCODE\sanbercodeimrn0620 (tugas_4 -> origin)                                          
? remove tugas_                                                                               
'remove' is not recognized as an internal or external command,                                
operable program or batch file.                                                               
                                                                                              
D:\SANBERCODE\sanbercodeimrn0620 (tugas_4 -> origin)                                          
? dir/w                                                                                       
 Volume in drive D has no label.                                                              
 Volume Serial Number is 90B7-D971                                                            
                                                                                              
 Directory of D:\SANBERCODE\sanbercodeimrn0620                                                
                                                                                              
[.]         [..]        README.md   [tugas_1]   [tugas_2]   [tugas_3]   [tugas_4]             
               1 File(s)             24 bytes                                                 
               6 Dir(s)  151,654,735,872 bytes free                                           
                                                                                              
D:\SANBERCODE\sanbercodeimrn0620 (tugas_4 -> origin)                                          
? mkdir tugas_5                                                                               
                                                                                              
D:\SANBERCODE\sanbercodeimrn0620 (tugas_4 -> origin)                                          
? dir/w                                                                                       
 Volume in drive D has no label.                                                              
 Volume Serial Number is 90B7-D971                                                            
                                                                                              
 Directory of D:\SANBERCODE\sanbercodeimrn0620                                                
                                                                                              
[.]         [..]        README.md   [tugas_1]   [tugas_2]   [tugas_3]   [tugas_4]             
[tugas_5]                                                                                     
               1 File(s)             24 bytes                                                 
               7 Dir(s)  151,654,735,872 bytes free                                           
                                                                                              
D:\SANBERCODE\sanbercodeimrn0620 (tugas_4 -> origin)                                          
? cd tugas_                                                                                   
The system cannot find the path specified.                                                    
                                                                                              
D:\SANBERCODE\sanbercodeimrn0620 (tugas_4 -> origin)                                          
? cd tugas_5                                                                                  
                                                                                              
D:\SANBERCODE\sanbercodeimrn0620\tugas_5 (tugas_4 -> origin)                                  
? git branch                                                                                  
  master                                                                                      
  tugas_1                                                                                     
  tugas_2                                                                                     
  tugas_3                                                                                     
* tugas_4                                                                                     
                                                                                              
D:\SANBERCODE\sanbercodeimrn0620\tugas_5 (tugas_4 -> origin)                                  
? git checkout tugas_                                                                         
error: pathspec 'tugas_' did not match any file(s) known to git                               
                                                                                              
D:\SANBERCODE\sanbercodeimrn0620\tugas_5 (tugas_4 -> origin)                                  
? git branch tugas_5                                                                          
                                                                                              
D:\SANBERCODE\sanbercodeimrn0620\tugas_5 (tugas_4 -> origin)                                  
? dir/w                                                                                       
 Volume in drive D has no label.                                                              
 Volume Serial Number is 90B7-D971                                                            
                                                                                              
 Directory of D:\SANBERCODE\sanbercodeimrn0620\tugas_5                                        
                                                                                              
[.]  [..]                                                                                     
               0 File(s)              0 bytes                                                 
               2 Dir(s)  151,654,735,872 bytes free                                           
                                                                                              
D:\SANBERCODE\sanbercodeimrn0620\tugas_5 (tugas_4 -> origin)                                  
? git branch                                                                                  
  master                                                                                      
  tugas_1                                                                                     
  tugas_2                                                                                     
  tugas_3                                                                                     
* tugas_4                                                                                     
  tugas_5                                                                                     
                                                                                              
D:\SANBERCODE\sanbercodeimrn0620\tugas_5 (tugas_4 -> origin)                                  
? git checkout tugas_5                                                                        
Switched to branch 'tugas_5'                                                                  
                                                                                              
D:\SANBERCODE\sanbercodeimrn0620\tugas_5 -> origin (tugas_5 -> origin)                        
? dir/w                                                                                       
 Volume in drive D has no label.                                                              
 Volume Serial Number is 90B7-D971                                                            
                                                                                              
 Directory of D:\SANBERCODE\sanbercodeimrn0620\tugas_5                                        
                                                                                              
[.]           [..]          arraytgs.js                                                       
               1 File(s)          2,964 bytes                                                 
               2 Dir(s)  151,654,731,776 bytes free                                           
                                                                                              
D:\SANBERCODE\sanbercodeimrn0620\tugas_5 -> origin (tugas_5 -> origin)                        
? node arraytgs                                                                               
Hasil Soal Pertama                                                                            
[                                                                                             
  1, 2, 3, 4,  5,                                                                             
  6, 7, 8, 9, 10                                                                              
]                                                                                             
-1                                                                                            
[                                                                                             
  11, 12, 13, 14,                                                                             
  15, 16, 17, 18                                                                              
]                                                                                             
[ 54, 53, 52, 51, 50 ]                                                                        
-1                                                                                            
                                                                                              
Hasil Soal Ke-2                                                                               
[ 1, 3, 5, 7, 9 ]                                                                             
[ 11, 14, 17, 20, 23 ]                                                                        
[ 5, 4, 3, 2 ]                                                                                
[                                                                                             
  29, 25, 21, 17,                                                                             
  13,  9,  5                                                                                  
]                                                                                             
                                                                                              
Hasil Soal Ke-3                                                                               
55                                                                                            
621                                                                                           
75                                                                                            
90                                                                                            
1                                                                                             
0                                                                                             
                                                                                              
Hasil Soal Ke-4                                                                               
Nomor ID : 0001                                                                               
Nama Lengkap : Roman Alamsyah                                                                 
TTL : Bandar Lampung 21/05/1989                                                               
Hobi : Membaca                                                                                
                                                                                              
Nomor ID : 0002                                                                               
Nama Lengkap : Dika Sembiring                                                                 
TTL : Medan 10/10/1992                                                                        
Hobi : Bermain Gitar                                                                          
                                                                                              
Nomor ID : 0003                                                                               
Nama Lengkap : Winona                                                                         
TTL : Ambon 25/12/1965                                                                        
Hobi : Memasak                                                                                
                                                                                              
Nomor ID : 0004                                                                               
Nama Lengkap : Bintang Senjaya                                                                
TTL : Martapura 6/4/1970                                                                      
Hobi : Berkebun                                                                               
                                                                                              
                                                                                              
                                                                                              
Hasil Soal Ke-5                                                                               
kasuR rusaK                                                                                   
edoCrebnaS                                                                                    
hajI ijaH                                                                                     
racecar                                                                                       
srebnaS ma I                                                                                  
                                                                                              
D:\SANBERCODE\sanbercodeimrn0620\tugas_5 -> origin (tugas_5 -> origin)                        
? git add .                                                                                   
                                                                                              
D:\SANBERCODE\sanbercodeimrn0620\tugas_5 -> origin (tugas_5 -> origin)                        
? git commit -m "tugas_5"                                                                     
[tugas_5 96ebc04] tugas_5                                                                     
 1 file changed, 114 insertions(+)                                                            
 create mode 100644 tugas_5/arraytgs.js                                                       
                                                                                              
D:\SANBERCODE\sanbercodeimrn0620\tugas_5 -> origin (tugas_5 -> origin)                        
? git push -u origin tugas_5                                                                  
Username for 'https://gitlab.com': ekosandu                                                   
Password for 'https://ekosandu@gitlab.com':                                                   
Enumerating objects: 5, done.                                                                 
Counting objects: 100% (5/5), done.                                                           
Delta compression using up to 4 threads                                                       
Compressing objects: 100% (3/3), done.                                                        
Writing objects: 100% (4/4), 1.15 KiB | 392.00 KiB/s, done.                                   
Total 4 (delta 1), reused 0 (delta 0), pack-reused 0                                          
remote:                                                                                       
remote: To create a merge request for tugas_5, visit:                                         
remote:   https://gitlab.com/Ekosandu/sanbercodeimrn0620/-/merge_requests/new?merge_request%5B
source_branch%5D=tugas_5                                                                      
remote:                                                                                       
To https://gitlab.com/Ekosandu/sanbercodeimrn0620.git                                         
 * [new branch]      tugas_5 -> tugas_5                                                       
Branch 'tugas_5' set up to track remote branch 'tugas_5' from 'origin'.                       
                                                                                              
D:\SANBERCODE\sanbercodeimrn0620\tugas_5 -> origin (tugas_5 -> origin)                        
? git checkout tugas_5                                                                        
                                                                                              
                                                                                              
                                                                                              
                                                                                              
                                                                                              
                                                                                              
                                                                                              
                                                                                              
                                                                                              
                                                                                              
                                                                                              
                                                                                              
                                                                                              
                                                                                              
                                                                                              
                                                                                              
                                                                                              
                                                                                              
                                                                                              
                                                                                              
                                                                                              
                                                                                              
                                                                                              